{
  "persons": [
    {
      "id": 1,
      "name": "William",
      "secondName": "Shakespeare",
      "thirdName": "",
      "birthday": "1564-04-26",
      "gender": "MAN",
      "legalType": "NATURAL"
    },
    {
      "id": 2,
      "name": "Agatha",
      "secondName": "Christie",
      "thirdName": "Mary",
      "birthday": "1890-09-15",
      "gender": "WOMAN",
      "legalType": "LEGAL_ENTITY"
    },
    {
      "id": 3,
      "name": "Lev",
      "secondName": "Tolstoy",
      "thirdName": "Nikolayevich",
      "birthday": "1828-08-28",
      "gender": "MAN",
      "legalType": "SOLE_PROPRIETORSHIP"
    }
  ]
}